<?xml version="1.0" encoding="utf-8"?>
<!-- Generator: Adobe Illustrator 16.0.0, SVG Export Plug-In . SVG Version: 6.00 Build 0)  -->
<!DOCTYPE svg PUBLIC "-//W3C//DTD SVG 1.1//EN" "http://www.w3.org/Graphics/SVG/1.1/DTD/svg11.dtd">
<svg version="1.1" xmlns="http://www.w3.org/2000/svg" xmlns:xlink="http://www.w3.org/1999/xlink" x="0px" y="0px" width="1920px"
	 height="2000px" viewBox="0 0 1920 2000" enable-background="new 0 0 1920 2000" xml:space="preserve">
<pattern  x="654.5" y="1396.5" width="4.018" height="4.018" patternUnits="userSpaceOnUse" id="New_Pattern_Swatch_1" viewBox="0 -4.018 4.018 4.018" overflow="visible">
	<g>
		<polygon fill="none" points="0,0 4.018,0 4.018,-4.018 0,-4.018 		"/>
		<polygon fill="#BFBFBF" points="1.004,-3.013 0,-3.013 0,-4.018 1.004,-4.018 		"/>
		<polygon fill="#BFBFBF" points="2.009,-2.009 1.004,-2.009 1.004,-3.013 2.009,-3.013 		"/>
		<polygon fill="#BFBFBF" points="1.004,-1.004 0,-1.004 0,-2.009 1.004,-2.009 		"/>
		<polygon fill="#BFBFBF" points="2.009,0 1.004,0 1.004,-1.004 2.009,-1.004 		"/>
		<polygon fill="#BFBFBF" points="3.013,-1.004 2.009,-1.004 2.009,-2.009 3.013,-2.009 		"/>
		<polygon fill="#7F7F7F" points="2.009,-1.004 1.004,-1.004 1.004,-2.009 2.009,-2.009 		"/>
		<polygon fill="#BFBFBF" points="3.013,-3.013 2.009,-3.013 2.009,-4.018 3.013,-4.018 		"/>
		<polygon fill="#BFBFBF" points="4.018,-2.009 3.013,-2.009 3.013,-3.013 4.018,-3.013 		"/>
		<polygon fill="#BFBFBF" points="4.018,0 3.013,0 3.013,-1.004 4.018,-1.004 		"/>
		<polygon fill="#7F7F7F" points="4.018,-3.013 3.013,-3.013 3.013,-4.018 4.018,-4.018 		"/>
	</g>
</pattern>
<g id="Layer_1">
	<pattern  id="SVGID_1_" xlink:href="#New_Pattern_Swatch_1" patternTransform="matrix(2 0 0 2 8536.8281 7984.8457)">
	</pattern>
	<rect fill="url(#SVGID_1_)" stroke="#000000" stroke-miterlimit="10" width="1920" height="2000"/>
</g>
<g id="Layer_2">
	<rect opacity="0.8" fill="#000D19" stroke="#000000" stroke-miterlimit="10" width="1920" height="2000"/>
</g>
</svg>
